4, 2, 1, 2, 3, 4, 3, 5, 1, 2, 4, 6, 5
1, 2, 3, 4, 5, 6, 5, 4, 3, 2, 1, 0, -1
1, 1, 1, 1, 1, 1, 1, 1, 1, 1, 1, 1, 1
2, 3, 4, 5, 6, 7, 2, 3, 4, 5, 6, 7
-2, -3, -4, -5, -6, -7, -2, -3, -4, -5, -6, -7
1, 2, 3, 5, 1, 2, 3, 4, 100, 200
1, 61, 178, 15, 167, 72, 121, 472, 168, 16, 1, -167, -186, 12943
